From:       Ferrer et al. 2015
BibSource:  DBLP:conf/icst/ChanderDSY11

Property*		Method*	Function*		Strength*	Size	Length	Time
-----------------------------------------------------------------------------------------   

# *******************
# CLASS COVERAGE
# *******************

Keyboard		GTSG	State history		1		1	2	-
Keyboard		ACOts	State history		1		1	2	-
Keyboard		Greedy	State history		1		1	2	-
Microwave		GTSG	State history		1		1	8	-
Microwave		ACOts	State history		1		1	8	-
Microwave		Greedy	State history		1		1	9	-

Mealy Moore		GTSG	State history		1		1	5	-
Mealy Moore		ACOts	State history		1		1	5	-
Mealy Moore		Greedy	State history		1		1	5	-

# *******************
# TRANSITION COVERAGE
# *******************

Keyboard		GTSG	Transition history	1		1	5	-
Keyboard		ACOts	Transition history	1		1	5	-
Keyboard		Greedy	Transition history	1		1	5	-
Microwave		GTSG	Transition history	1		1	17	-
Microwave		ACOts	Transition history	1		1	17	-
Microwave		Greedy	Transition history	1		1	17	-

Mealy Moore		GTSG	Transition history	1		1	24	-
Mealy Moore		ACOts	Transition history	1		1	24	-
Mealy Moore		Greedy	Transition history	1		1	24	-


# These specs were discarded. See reason below:

# Coverage is expressed in terms of statechart classes, not individual
# states 
#Citizen			GTSG	State history		1		1	39	-
#Citizen			ACOts	State history		1		1	36	-
#Citizen			Greedy	State history		1		1	47	-
#Citizen			GTSG	Transition history	1		1	75	-
#Citizen			ACOts	Transition history	1		1	64	-
#Citizen			Greedy	Transition history	1		1	51	-

# The state chart contains two variables (number of tape tracks and CD
# tracks); how was this reduced to a finite model?
#Autoradio		GTSG	Transition history	1		1	36	-
#Autoradio		ACOts	Transition history	1		1	36	-
#Autoradio		Greedy	Transition history	1		1	36	-
#Autoradio		GTSG	State history		1		1	13	-
#Autoradio		ACOts	State history		1		1	14	-
#Autoradio		Greedy	State history		1		1	13	-

# https://www.mathworks.com/help/stateflow/examples/tetris.html
# Couldn't figure out how to convert the Matlab "stateflow" file into a FSM.
# There seem to be epsilon-transitions in the model; what does
# transition coverage mean in that context? 
#Tetris			GTSG	Transition history	1		1	31	-
#Tetris			ACOts	Transition history	1		1	31	-
#Tetris			Greedy	Transition history	1		1	31	-
#Tetris			GTSG	State history		1		1	12	-
#Tetris			ACOts	State history		1		1	12	-
#Tetris			Greedy	State history		1		1	15	-

# https://www.mathworks.com/help/stateflow/examples/
# There are two different models that relate to an aircraft in the reference;
# which one was used?
#Aircraft		GTSG	State history		1		1	4	-
#Aircraft		ACOts	State history		1		1	4	-
#Aircraft		Greedy	State history		1		1	4	-
#Aircraft		GTSG	Transition history	1		1	7	-
#Aircraft		ACOts	Transition history	1		1	7	-
#Aircraft		Greedy	Transition history	1		1	7	-

# https://www.mathworks.com/help/stateflow/examples/modeling-a-fault-tolerant-fuel-control-system.html
# The FSM extracted from this stateflow has much more than 5 states;
# how can the authors report a solution of size 5 for state coverage?
#Fuel Control		GTSG	State history		1		1	5	-
#Fuel Control		ACOts	State history		1		1	5	-
#Fuel Control		Greedy	State history		1		1	5	-
#Fuel Control		GTSG	Transition history	1		1	11	-
#Fuel Control		ACOts	Transition history	1		1	11	-
#Fuel Control		Greedy	Transition history	1		1	12	-

# These Rhapsody examples could not be found, so we don't have the spec
# that was used for generating the tests

#Coffee machine		GTSG	State history		1		1	9	-
#Coffee machine		ACOts	State history		1		1	9	-
#Coffee machine		Greedy	State history		1		1	9	-
#Communication		GTSG	State history		1		1	7	-
#Communication		ACOts	State history		1		1	7	-
#Communication		Greedy	State history		1		1	7	-
#Elevator		GTSG	State history		1		1	6	-
#Elevator		ACOts	State history		1		1	6	-
#Elevator		Greedy	State history		1		1	6	-

#Coffee machine		GTSG	Transition history	1		1	19	-
#Coffee machine		ACOts	Transition history	1		1	19	-
#Coffee machine		Greedy	Transition history	1		1	18	-
#Communication		GTSG	Transition history	1		1	16	-
#Communication		ACOts	Transition history	1		1	16	-
#Communication		Greedy	Transition history	1		1	17	-
#Elevator		GTSG	Transition history	1		1	9	-
#Elevator		ACOts	Transition history	1		1	9	-
#Elevator		Greedy	Transition history	1		1	9	-

# The statechart for this problem has two continuous variables
# (vehicle speed and throttle). How was this reduced to a finite-state
# problem is unclear. Moreover, the statechart has 7 states and 12
# transitions; it is unclear how a solution of size 4 can claim full
# coverage...
#Transmission		GTSG	State history		1		1	4	-
#Transmission		ACOts	State history		1		1	4	-
#Transmission		Greedy	State history		1		1	4	-
#Transmission		GTSG	Transition history	1		1	9	-
#Transmission		ACOts	Transition history	1		1	9	-
#Transmission		Greedy	Transition history	1		1	9	-